Kapitel 6 Beskrivande statistik | R-anvisningar till Grundläggande statistik
…
konstruera och tolka grafer.

6.1 Datamängd

Som exempeldata använder vi data från Gapminder - en stiftelse med mål att sprida information om ekonomisk utveckling och hälsa, grundad av Hans Rosling (1948-2017). Datamängden finns tillgänglig i R-paketet gapminder.

install.packages("gapminder")
library(gapminder)

Efter att paketet laddas med library(gapminder) är datan tillgänglig under namnet gapminder. Man kan skriva ut de första raderna genom

gapminder

## # A tibble: 1,704 x 6
##    country     continent  year lifeExp      pop gdpPercap
##    <fct>       <fct>     <int>   <dbl>    <int>     <dbl>
##  1 Afghanistan Asia       1952    28.8  8425333      779.
##  2 Afghanistan Asia       1957    30.3  9240934      821.
##  3 Afghanistan Asia       1962    32.0 10267083      853.
##  4 Afghanistan Asia       1967    34.0 11537966      836.
##  5 Afghanistan Asia       1972    36.1 13079460      740.
##  6 Afghanistan Asia       1977    38.4 14880372      786.
##  7 Afghanistan Asia       1982    39.9 12881816      978.
##  8 Afghanistan Asia       1987    40.8 13867957      852.
##  9 Afghanistan Asia       1992    41.7 16317921      649.
## 10 Afghanistan Asia       1997    41.8 22227415      635.
## # ... with 1,694 more rows
…
Inom filter-funktionen anges ett logisk villkor och utfallet är de rader där villkoret är sant. Notera de dubbla likhetstecknen - de måste användas för ett logisk villkor eftersom enkelt likhetstecken används för att skapa objekt och sätta funktionsargument. Om man vill välja flera länder kan man använda funktionen %in% på följande sätt

gapminder %>% 
  filter(country %in% c("Sweden", "Denmark"))

## # A tibble: 24 x 6
##    country continent  year lifeExp     pop gdpPercap
##    <fct>   <fct>     <int>   <dbl>   <int>     <dbl>
##  1 Denmark Europe     1952    70.8 4334000     9692.
##  2 Denmark Europe     1957    71.8 4487831    11100.
##  3 Denmark Europe     1962    72.4 4646899    13583.
##  4 Denmark Europe     1967    73.0 4838800    15937.
##  5 Denmark Europe     1972    73.5 4991596    18866.
##  6 Denmark Europe     1977    74.7 5088419    20423.
##  7 Denmark Europe     1982    74.6 5117810    21688.
##  8 Denmark Europe     1987    74.8 5127024    25116.
##  9 Denmark Europe     1992    75.3 5171393    26407.
## 10 Denmark Europe     1997    76.1 5283663    29804.
## # ... with 14 more rows
…
## # A tibble: 2 x 6
##   country continent  year lifeExp     pop gdpPercap
##   <fct>   <fct>     <int>   <dbl>   <int>     <dbl>
## 1 Denmark Europe     1987    74.8 5127024    25116.
## 2 Sweden  Europe     1987    77.2 8421403    23587.

Om man istället vill göra ett urval av kolumner kan man använda select. Som argument anges de kolumner man vill välja, t.ex.

gapminder %>% 
  select(country, pop)

## # A tibble: 1,704 x 2
##    country          pop
##    <fct>          <int>
##  1 Afghanistan  8425333
##  2 Afghanistan  9240934
##  3 Afghanistan 10267083
##  4 Afghanistan 11537966
##  5 Afghanistan 13079460
##  6 Afghanistan 14880372
##  7 Afghanistan 12881816
##  8 Afghanistan 13867957
##  9 Afghanistan 16317921
## 10 Afghanistan 22227415
## # ... with 1,694 more rows
…
6.3 Transformationer av variabler

Variabler kan omräknas och nya variabler kan skapas med mutate-funktionen. I datan har vi befolkning och bnp per capita, så det är naturligt att beräkna total bnp som produkten av de två variablerna genom

gapminder <- gapminder %>% 
  mutate(gdptotal = gdpPercap * pop)

Den inledande delen med gapminder <- gör så att utfallet av beräkningen sparas i gapminder-datan.
Vi kan skriva ut objektet och se resultatet av beräkningen:

gapminder

## # A tibble: 1,704 x 7
##    country     continent  year lifeExp      pop gdpPercap     gdptotal
##    <fct>       <fct>     <int>   <dbl>    <int>     <dbl>        <dbl>
##  1 Afghanistan Asia       1952    28.8  8425333      779.  6567086330.
##  2 Afghanistan Asia       1957    30.3  9240934      821.  7585448670.
##  3 Afghanistan Asia       1962    32.0 10267083      853.  8758855797.
##  4 Afghanistan Asia       1967    34.0 11537966      836.  9648014150.
##  5 Afghanistan Asia       1972    36.1 13079460      740.  9678553274.
##  6 Afghanistan Asia       1977    38.4 14880372      786. 11697659231.
##  7 Afghanistan Asia       1982    39.9 12881816      978. 12598563401.
##  8 Afghanistan Asia       1987    40.8 13867957      852. 11820990309.
##  9 Afghanistan Asia       1992    41.7 16317921      649. 10595901589.
## 10 Afghanistan Asia       1997    41.8 22227415      635. 14121995875.
## # ... with 1,694 more rows
…
c.

villagers %>% 
  count(song, sort = T)

## # A tibble: 93 x 2
##    song              n
##    <chr>         <int>
##  1 <NA>             11
##  2 K.K. Country     10
##  3 Forest Life       9
##  4 I Love You        7
##  5 Imperial K.K.     7
##  6 K.K. Lament       7
##  7 K.K. Lullaby      7
##  8 K.K. Ragtime      7
##  9 K.K. Soul         7
## 10 Cafe K.K.         6
## # ... with 83 more rows
…
Två lag (IFK Göteborg och Malmö FF) med två gånger var (1934-35 och 1941-42 respektive 1949-50 och 1950-51).

c. Skapa en ny variabel för totalt antal mål och sortera efter den kolumnen.

dat %>% 
  mutate(Mål = hemmamal + bortamal) %>% 
  arrange(-Mål) %>% 
  print(n = 5)

## # A tibble: 14,996 x 7
##   datum      sasong    hemma         borta      hemmamal bortamal   Mål
##   <date>     <chr>     <chr>         <chr>         <dbl>    <dbl> <dbl>
## 1 1928-10-21 1928_1929 Helsingborg   Eskilstuna       13        1    14
## 2 1936-04-19 1935_1936 Eskilstuna    Elfsborg          2       12    14
## 3 1954-11-06 1954_1955 Sandviken AIK AIK               4        9    13
## 4 1927-10-30 1927_1928 AIK           Eskilstuna        8        4    12
## 5 1928-11-04 1928_1929 Sleipner      Eskilstuna        7        5    12
## # ... with 14,991 more rows
…
dat <- read_csv2("Data/smhi-opendata_1_52230_20210912_114534.csv", skip = 9) %>% 
  mutate(Lufttemperatur = as.numeric(Lufttemperatur))

a. Vilken är den högst uppmätta temperaturen?

b. Beräkna max-temperaturen för varje år. Plotta ett linjediagram med år på x-axeln och maxtemperatur på y-axeln.

c. Skapa en variabel som anger observationens årtionde. Beräkna medeltemperaturen per årtionde och illustrera med lämplig graf.

Lösningsförslag 6.6  (Väderstation Falsterbo) a. Ordna data efter lufttemperatur och skriv ut de översta raderna.

dat %>% arrange(desc(Lufttemperatur)) %>% print(n = 10)

## # A tibble: 245,869 x 6
##    Datum      `Tid (UTC)` Lufttemperatur Kvalitet ...5  `Tidsutsnitt:`
##    <date>     <time>               <dbl> <chr>    <lgl> <chr>         
##  1 1994-07-31 12:00                 29.6 G        NA    <NA>          
##  2 1911-08-01 13:00                 28.8 G        NA    <NA>          
##  3 2018-08-03 15:00                 28.8 G        NA    <NA>          
##  4 2018-07-26 15:00                 28.7 G        NA    <NA>          
##  5 1994-07-28 12:00                 28.4 G        NA    <NA>          
##  6 2012-08-19 15:00                 28.4 G        NA    <NA>          
##  7 1994-07-28 15:00                 28.3 G        NA    <NA>          
##  8 2014-07-09 12:00                 28.2 G        NA    <NA>          
##  9 2018-08-02 15:00                 28.2 G        NA    <NA>          
## 10 2018-07-26 12:00                 28.1 G        NA    <NA>          
## # ... with 245,859 more rows
…
Övning 6.7  (Relativ frekvens) Säg att man kastar ett häftstift och att sannolikheten att stiftet stannar spetsen upp är 0.66. Simulera tusen häftstiftskast och beräkna den relativa frekvensen häftstiften hamnat med spetsen uppåt. Den relativa frekvensen för en serie värden ges av antalet positiva utfall delat på antalet kast för varje kast. Den relativa frekvensen efter 35 kast är till exempel antalet positiva utfall bland de 35, delat på 35.
Illustrera med ett linjediagram.

Ledning: tusen kast kan simuleras med rbin(1000, 1, 0.66), vilket skapar tusen slumptal från en binomialfördelning där \(n = 1\) och \(p = 0.67\).

Lösningsförslag 6.7  (Relativ frekvens) För att beräkna och illustrera den relativa frekvensen skapas en tibble där den första kolumnen anger antalet kast vid varje steg, det vill säga en kolumn som anger ett till tusen. Därefter dras tusen slumptal enligt ledningen ovan. Därefter beräknas den kumulativa summan - antalet positiva utfall upp till det kast som anges för raden. Och slutligen beräknas den relativa frekvensen genom att ta den kumulativa summan och dela med antalet kast.

dat <- tibble(Kast = 1:1000,
              Utfall = rbinom(1000, 1, 0.67),
              Antal_spets_upp = cumsum(Utfall),
              Relativ_frekvens = Antal_spets_upp / Kast)

dat

## # A tibble: 1,000 x 4
##     Kast Utfall Antal_spets_upp Relativ_frekvens
##    <int>  <int>           <int>            <dbl>
##  1     1      1               1            1    
##  2     2      0               1            0.5  
##  3     3      1               2            0.667
##  4     4      1               3            0.75 
##  5     5      1               4            0.8  
##  6     6      0               4            0.667
##  7     7      1               5            0.714
##  8     8      0               5            0.625
##  9     9      1               6            0.667
## 10    10      1               7            0.7  
## # ... with 990 more rows
…
