Kapitel 8 Två stickprov | R-anvisningar till Grundläggande statistik
…
Notera att funktionen inte ger ett z-värde utan ett \(\chi^2\)-värde (utskrivet X-squared). Det beror på att funktionen beräknar z-testet som ett likvärdigt \(\chi^2\)-test.
Testet ger ett högt p-värde vilket innebär att nollhypotesen inte förkastas.

8.3 Nominal eller ordinal data. Korstabeller

Data med två insamlade variabler per observerad enhet kan presenteras med en korstabell. Ett exempel från växtskydd kan vara att man observerar ett antal plantor och för varje planta noterar skadegrad (som ett värde mellan 0 och 3) och förekomst av en viss skadeinsekt (som ett binärt utfall med förekomst eller icke-förekomst). De första raderna i datasetet ges av följande.

dat

## # A tibble: 400 x 3
##       id Skadegrad Förekomst     
##    <int>     <int> <chr>         
##  1     1         3 Förekomst     
##  2     2         2 Icke-förekomst
##  3     3         1 Icke-förekomst
##  4     4         3 Förekomst     
##  5     5         2 Icke-förekomst
##  6     6         1 Förekomst     
##  7     7         2 Förekomst     
##  8     8         0 Icke-förekomst
##  9     9         1 Icke-förekomst
## 10    10         3 Förekomst     
## # ... with 390 more rows
…
